module honr.gitlab.com/base

go 1.21.4

require (
	go.i3wm.org/i3/v4 v4.21.0
	golang.org/x/net v0.0.0-20181102091132-c10e9556a7bc
)

require (
	github.com/BurntSushi/xgb v0.0.0-20210121224620-deaf085860bc // indirect
	github.com/BurntSushi/xgbutil v0.0.0-20190907113008-ad855c713046 // indirect
)
